wavelength,380,400,420,450,530,620,660,735,5700k
324,-9.922079e-05,-0.00010612656999999999,-0.0006230569,-0.00183637834,-0.00024267378,2.2458510000000003e-05,-0.00036079289,-0.00015541246,0.0002868651
326,0.00032669463,0.00029119384000000003,-0.00032054355,-0.0013653305900000001,-0.0007590769,0.00028654441999999996,-0.0007767349599999999,-0.0006888423500000001,-0.00057721446
327,-0.00013763939,-0.00171755619,-0.0015881631,-0.0026460398899999997,-0.0009897151899999998,-0.00047977952999999994,-0.00183257439,-0.00118407917,-0.0014237414200000001
329,0.00012832958,0.0008540705199999999,-0.00070511485,-0.0013110002600000001,-0.00019529561,-0.00055351151,-0.00201014201,-0.00093802997,-0.00115429637
331,5.5147149999999996e-05,-0.00027526517,-0.00159079947,-0.0016133066400000002,-0.00037766024,-0.00036043197,-0.001349718,-0.00099999851,-0.00037202735
333,-0.00019187784,-0.00089390181,-0.0008434277599999999,-0.00171072173,-0.00030660541,-0.00017227758999999998,-0.00175324084,-0.00090625558,-0.00132318923
335,0.00020833874,-0.00069327731,-0.00082674952,-0.00096743845,-0.0007530075599999999,-0.00055933715,-0.0016316987899999999,-0.0010152399500000001,-0.00119725294
337,-0.00037180473,-0.00010310284,-0.00096470474,-0.00120855459,-0.00067191483,-1.636397e-05,-0.00129420287,-0.00081880051,-0.00027869182
339,0.00020170449999999999,-0.00032034589,-0.0006045152,-0.0011495026699999999,-0.0006592655899999999,-0.00022516501,-0.00114890163,-0.0008042000200000001,0.00012370143
341,-4.894039e-05,4.0714059999999994e-05,0.00035854137,-0.0008863094600000001,-0.00016757749,-0.00015508641000000001,-0.00105407161,-0.00042652622000000003,0.00011005202
343,0.0,7.303768e-05,-0.0008039922,-0.00097844083,-0.00035072362,-1.1592180000000001e-05,-0.00060165569,-0.0003825765,-0.00062517689
344,9.968641000000001e-05,-0.00043123726,-0.00043818655,-0.0006110309700000001,-0.00061440776,5.791402e-05,-0.00096291157,-0.00050445806,-0.00053799442
346,0.00011032716999999999,6.118827e-05,-3.367775e-05,-0.0010758583100000001,-0.00010493689000000001,-0.00019908572999999998,-0.0006960619999999999,-0.00042389828,2.756579e-05
348,5.1688000000000004e-05,2.866655e-05,9.466764000000001e-05,-0.0009120668299999999,-0.0005702869700000001,-8.189662999999999e-05,-0.00051726732,-0.00017437635,-0.00012914506
350,0.00022388747,0.0,-0.00012001596,-0.00082156941,-0.00054224074,-0.00016871622,-0.0008981217,-0.00040529052,-0.0001964701
352,0.00013139595,0.00010493737,-0.00031766381000000005,-0.00030751467000000003,-0.00048590790000000003,-0.00024566331,-0.0005351250700000001,-0.00029256593,7.091266e-05
354,0.00012251942,-7.644396e-05,-2.804961e-05,-0.00055470599,-1.748002e-05,-6.47083e-05,-0.00055974688,-0.00036166860000000004,-0.00016071347
356,0.00022446250000000001,-0.00027387486,-8.222154000000001e-05,-0.0006670787,-0.0004611511,-0.0001225009,-0.00029299654,-0.00038704097,0.00031406523
358,0.00028356939,0.00021963527,-0.00024177252,-0.0009807728,0.0,-0.00025563575,-0.00049778828,-0.00022267063,0.0
360,0.00039329839999999996,9.576272999999999e-05,-5.2707379999999995e-05,-0.00056125754,-0.0002463473,-0.00015198986,-0.00041321015,-0.00033171111000000004,0.00034513489
361,0.00043254253,0.00035201443,5.166591e-05,-0.00102173945,-0.00032197281000000003,-4.097132e-05,-0.00047868994999999997,-0.0004996310000000001,0.00016915761000000002
363,0.0008280025200000001,0.00039033392,0.00032857580999999997,-0.00049983691,-7.875485999999999e-05,-0.00021865364,-0.00036027084,-0.00024054076,0.00070339394
365,0.00162524901,0.00022409880999999998,-9.867438e-05,-0.00026268495999999997,-7.686516e-05,2.845428e-05,-0.0004043702,-0.00015903711,0.00010095827
367,0.00335214053,0.00026177991,0.00045626119,-0.00073060505,-0.00016461436999999998,-0.00018350548000000002,-0.00042786506,-0.00038335226,-0.0001179339
369,0.00688382483,0.00042367923,2.331911e-05,-0.00021284136,-0.00030517325000000003,-3.025992e-05,-0.00044872751,-0.00013601926,0.00028630621
371,0.01366316281,0.0008006531899999999,0.00011299382,0.000137511,-0.00011266521,4.887527e-05,-0.00025769831,-0.0003538259,0.00020347209000000003
373,0.0240128107,0.0005761504199999999,0.00048113332000000004,-0.00049903011,-0.00024531855000000004,5.991142e-05,-0.00031173074,-0.00031555522,0.0002148085
375,0.03816876863,0.001210432,8.45989e-05,-0.00019304062,-0.00011862121,-0.00012807584000000001,-0.00043712898,-7.142202e-05,0.00038085079
377,0.05707982573,0.0018211181300000002,0.00049093969,-0.00031117855,7.648624e-05,-9.143065e-05,-0.00045194489999999995,-0.00014443734999999998,0.00026789485
378,0.07959269224,0.00199685555,0.00013862021999999999,-0.00051211819,-0.00011106728999999999,0.0,-0.0005080868100000001,-9.727098e-05,0.00030797085
380,0.1024599345,0.00289581524,0.00038405871000000004,-0.00014605968999999999,-5.983465e-05,-4.706844e-05,-0.00031477653,-0.0001355908,0.0002986405
382,0.116884744,0.0043915088,0.0007839135099999999,-0.00036910927,-0.00016284035,-1.614668e-05,-0.00054539305,-0.00022919947,0.00019860477000000002
384,0.1159744094,0.00649519795,0.0013826692199999998,-0.0001107025,1.133757e-05,-4.721614e-05,-0.00028525566,-6.14373e-05,0.00035739083999999997
386,0.09936221946,0.009405670179999999,0.00167224335,-5.4124560000000004e-05,-8.869043e-05,-4.873472e-05,-0.00032964907,-0.00013653575,0.00046596047000000004
388,0.07619484543,0.0142857374,0.002129328,0.00018585469,-1.087672e-05,1.006598e-05,-0.00023634326000000002,-0.00017146183999999998,0.0002000038
390,0.05579263158,0.021584153760000002,0.0032985186100000004,0.00023520847,0.00011776752,-4.954056e-05,-0.00011019632,1.582245e-05,0.00046404396
392,0.0418112818,0.03332968972,0.0050886299400000005,0.00025803128,-0.00023255057999999997,0.00011983645,-0.00025386674,-0.00016142696,0.00054146663
394,0.0316953092,0.051270917049999996,0.00743894183,0.00038316995,-0.00014650438,-3.389602e-05,-0.0003111628,-0.00025260287,0.00087966009
396,0.023693688650000003,0.07697750677,0.01152918061,0.00020275664,-0.00019727002000000002,-1.921744e-05,-0.00021373308,-0.00020459127,0.0007227626400000001
397,0.01778833191,0.1139091503,0.01735229017,0.00083119362,4.127344e-05,-5.4908120000000005e-05,-0.00031861497,-0.00013216109,0.00124684027
399,0.01343106322,0.1644442783,0.02666934232,0.00080187778,-4.106205e-05,2.375082e-05,-0.00038742379,-0.00021239755,0.00153708465
401,0.01071010585,0.22986388030000002,0.04012244144,0.0012471426500000001,0.00023501542000000001,2.127694e-05,-0.00018697358000000001,-0.00012080903,0.00213391926
403,0.00851272988,0.3086602804,0.059536126339999995,0.00183717365,0.0001220456,8.235823e-05,-0.00019773409,-3.507184e-05,0.0030056315300000004
405,0.00678146012,0.3937153913,0.08691021882,0.00291439459,0.00039459660000000003,0.00017088725999999998,1.1571260000000001e-05,4.485913e-05,0.00441203714
407,0.00548902522,0.46950904,0.1240278977,0.00387854499,-0.00013073067,6.97997e-06,-0.00018401188,-0.00011394141,0.00590410403
409,0.00435839862,0.5159308062,0.1722297177,0.0060187808600000005,9.98238e-06,-5.7739369999999996e-05,-0.00028540773,-0.00016228095000000002,0.00853546721
411,0.00351083019,0.5160911025,0.2322319052,0.00847747435,-0.00010883646999999999,8.698882e-05,-0.00039604228,-8.77352e-05,0.01239773857
412,0.00289075285,0.4681821202,0.30176928319999996,0.01194966231,-3.916228e-05,3.8508359999999996e-05,-0.00038069633,-0.00012057788,0.017347316800000002
414,0.00243183724,0.3918839656,0.3764915445,0.01716293609,0.00012572537,4.475151e-05,-0.00011060412000000001,2.38215e-05,0.02423652083
416,0.0020080994299999998,0.3107242302,0.4485222855,0.024210798260000003,0.00014305051,1.10323e-05,-3.271984e-05,-0.00013154544,0.03336911755
418,0.0016232006299999999,0.24227078559999998,0.5033082526,0.03403319892,0.00015960542,6.516555e-05,-4.294874e-05,-0.00013412704,0.044812169830000005
420,0.0014581297300000002,0.1896504224,0.5269266057,0.04692604923,0.00021226332,-3.629896e-05,-0.00011609981999999999,0.0,0.059165462169999995
422,0.00111131933,0.14944189019999998,0.5104939431,0.06340785971,7.24816e-05,8.17524e-05,-0.00019687163,-0.00021423906,0.0765889593
424,0.00107174795,0.1173154449,0.4578994172,0.08520006201,0.00017771366,6.167514e-05,-0.00020324158,2.1886710000000002e-05,0.09708995231999999
426,0.00104784627,0.0908572495,0.38386302450000004,0.11290221880000001,0.0003831786,8.05947e-06,-0.00013943389,-6.006151e-05,0.1202850034
428,0.00092697153,0.06969029368,0.30821326320000003,0.1469629468,0.00041808804,8.686052e-05,-6.830641000000001e-05,5.884632e-05,0.1458797184
429,0.0009595744000000001,0.05341777446,0.242478625,0.1878197892,0.00042638753,0.0001063886,0.0,1.235592e-05,0.1726561581
431,0.00123515128,0.041447941530000004,0.19143253040000002,0.2352100377,0.00109010995,0.00052528685,0.00040306851,0.0003795475,0.1996554922
433,0.00162777178,0.0330509213,0.1527560128,0.28717151739999996,0.00155226477,0.00095274471,0.00068986087,0.0008043112600000001,0.2256642401
435,0.00146095791,0.02648507333,0.12207112,0.3424771249,0.0014225079800000001,0.0008977631799999999,0.00071400467,0.00068908865,0.2500629644
437,0.00116539898,0.02102302533,0.09681176713999999,0.3997959008,0.00094899803,0.00058310744,0.00029356966,0.00036787166000000005,0.2725247625
439,0.0006923635799999999,0.01622823786,0.07577690668999999,0.459052746,0.00042197492000000005,8.875483999999999e-05,-0.00010529238,1.511832e-05,0.2942820413
441,0.00061138859,0.01308040553,0.05899488339,0.5187471234000001,0.0006598963300000001,0.00016847125,6.072203e-05,1.120979e-05,0.3158115908
443,0.00066305293,0.010443891910000001,0.04602235876,0.5748914933,0.00063901108,0.0001495843,-6.018375e-05,5.555208e-05,0.3344489416
445,0.00063710009,0.00842934817,0.03631258519,0.6195799021,0.00087409551,7.778281e-05,-0.00017088139,6.992722e-05,0.3464642982
446,0.00058482098,0.00686914355,0.02874083413,0.640771859,0.0008933057399999999,0.00018256723999999998,-4.256774e-05,2.567063e-05,0.34736795909999996
448,0.0005994618,0.005865133660000001,0.02328320602,0.6297890052999999,0.00118992784,0.00017034678,-5.1032120000000004e-05,5.495555e-05,0.3332995583
450,0.00053075962,0.00470136704,0.018955895599999998,0.584577186,0.00131834636,0.00014475502,7.666383e-05,-1.834619e-05,0.30469889569999997
452,0.00051747855,0.0041632796700000006,0.01527233671,0.514092491,0.00152518451,0.00019719467000000002,-8.550352000000001e-05,9.944332e-05,0.2662159548
454,0.00047434553,0.00344190539,0.0123679582,0.4336309994,0.0018497983300000001,0.00015831743999999997,-6.879724e-05,2.593026e-05,0.2248970313
456,0.00040486649,0.0029264077,0.00998014791,0.357803916,0.0022120340399999997,0.00011918345,0.0001126274,3.73189e-06,0.18675078280000001
458,0.00048429712,0.00268471016,0.00828956846,0.29417764290000004,0.00268230078,0.00012022848,0.00013983378,0.00019575972000000002,0.15594802100000002
460,0.00047548959000000003,0.00235089404,0.006810113049999999,0.2450350946,0.0031096521500000003,0.00012675445000000002,4.412335e-05,0.00011783874,0.1328785637
461,0.00048040310000000005,0.0018296896800000001,0.00559195863,0.20703231930000002,0.00383562961,0.00011724194000000001,6.241103e-05,4.992689e-05,0.1156053264
463,0.00041876127,0.00186053716,0.004943163259999999,0.1755482773,0.004695583729999999,0.00019321787,-5.4061279999999995e-05,9.314813999999999e-05,0.1026726792
465,0.00043245873,0.0015783337699999999,0.00393473529,0.1478134212,0.00568431516,0.00010130729999999999,5.462896e-05,0.00010589204,0.09127603645
467,0.00048850241,0.00167636131,0.0034067509200000003,0.1230433612,0.00698829716,0.00017675564,7.357552e-05,-1.188482e-05,0.08111947858
469,0.00038169865999999994,0.0014555532099999999,0.00265740659,0.1004483656,0.00841013037,0.00020472344,8.355592e-05,9.197937e-05,0.07163006
471,0.00047105607,0.00115772745,0.00256197018,0.08158403911,0.010398203500000001,0.00016291127,0.00010300043,2.4200559999999997e-05,0.06366322587
473,0.00037822903,0.0010942707999999999,0.00194583324,0.06606740632000001,0.01293449492,0.00019276265,2.830195e-05,0.00015848481,0.05697953881
475,0.00037818076,0.00108904431,0.00167833422,0.053797881490000005,0.01568032267,0.00010754968999999999,1.898649e-05,8.17848e-06,0.05224589697
476,0.00047506151000000006,0.00086337963,0.00145906557,0.04430981589,0.01905283222,0.00024125234999999997,0.00014310225,4.931333e-05,0.04901982607
478,0.00040094625000000004,0.00101285811,0.0013970396099999998,0.03674157863,0.023188373279999997,0.00021886032999999998,5.744252e-05,0.00018557635999999998,0.04714738754
480,0.00056101262,0.00103940377,0.00110378395,0.0303671559,0.028151873940000002,0.00031441153,7.674801e-05,0.00026034277,0.04624200634
482,0.00071087513,0.00128473288,0.00119872182,0.02540638253,0.03383423292,0.00055151836,0.00038396822,0.00045483706,0.04655613949
484,0.00084987585,0.00118583964,0.00137264826,0.02075820475,0.040548118210000005,0.00064030407,0.0007097374200000001,0.00060317968,0.0476180716
486,0.00096771239,0.00128076257,0.00107417287,0.01705545898,0.04812189182,0.0008363367200000001,0.0006411592100000001,0.00053999563,0.04942362037
488,0.00088148091,0.0011182023,0.00108373335,0.01349409276,0.056605464779999996,0.00074848374,0.00055306007,0.00054218326,0.05209524036
490,0.0007173349199999999,0.00087094548,0.0007723094199999999,0.01085727586,0.06607774102,0.00054908882,0.00035113325000000003,0.00038834856,0.05552003805
491,0.00051799043,0.0007335696,0.00070160427,0.00894112293,0.07670453244,0.00042944950000000005,0.0005283372900000001,0.00032918203999999997,0.06009297335
493,0.00052165459,0.000525542,0.00067054788,0.007060363619999999,0.08881042909999999,0.00048909425,0.00032797033000000006,0.00031887573000000005,0.06527064434
495,0.00041321874,0.00041488432,0.00061328409,0.00567704871,0.10180832819999999,0.00029725842,0.00013019634,0.00029643557,0.07140977945999999
497,0.00038393748,0.00048204210999999996,0.00032355342,0.00458727367,0.1161969354,0.00034521602,0.00011068636,0.00021455295,0.07758572025
499,0.00025921354,0.00055950523,0.00023096187,0.0037867118,0.1312254159,0.00018130387,0.00014631695,0.00019301835999999999,0.0841885372
501,0.00025462074,0.00039283323000000004,0.00045786418000000003,0.00297952909,0.1471842034,0.000209051,0.00010877329999999999,-3.514078e-05,0.09112101927999999
503,0.00020878526,0.00050389416,0.00013867054,0.00228208184,0.16373670059999998,0.00022538573,-7.187674e-05,2.322082e-05,0.09777865028
504,0.00019333552,0.00043142422,0.00019996122,0.0021863333400000003,0.1809370584,0.00019100507,1.781405e-05,3.453052e-05,0.10452475720000001
506,0.00023008469,0.00041659829000000005,3.7182780000000005e-05,0.00126324668,0.19787046409999998,0.00016083344,7.066714e-05,-8.751514e-05,0.1112490562
508,0.00018578055999999999,0.00029048502,0.00017218023,0.0011973689,0.21459935900000002,0.00017555115,3.5060830000000004e-05,1.510254e-05,0.1178194646
510,0.00015780763,0.00028845044,0.00012212448000000002,0.00104035962,0.2297025754,0.00020425558,4.3519070000000006e-05,3.74919e-05,0.1243313774
512,0.00023415353,0.00019847031000000002,0.00016992448000000001,0.00112629069,0.24363168680000002,9.975071000000001e-05,-8.65037e-06,4.844021e-05,0.13077064659999998
514,0.00019558839000000003,0.00024132591,4.829989e-05,0.0008265923799999999,0.2550342273,0.0001445032,8.60584e-06,-3.70699e-06,0.1371048111
516,0.00018385180000000001,0.00033867139,4.810405e-05,0.00075006392,0.2633232014,0.00016299067000000002,-0.00013713507,5.1687369999999994e-05,0.1436460649
517,0.00028589409,0.00022876068,8.393923e-05,0.00032834636,0.26871363,0.00017116516,3.418486e-05,2.5769130000000002e-05,0.15024944839999999
519,0.00033552867,8.700157999999999e-05,9.577055e-05,0.00040064287,0.2703990918,0.00018123601999999999,-8.53196e-06,-1.1025489999999999e-05,0.1567305695
521,0.00016986972,0.00035872655000000005,8.376305000000001e-05,0.00036406354000000004,0.268037763,0.00011559590999999999,9.381106e-05,8.816586e-05,0.1629607601
523,0.00021359593,0.00026109969,-0.00010778107000000001,0.00010930598999999999,0.2623105343,0.00017094185000000002,-0.00019630650999999998,1.1029499999999998e-05,0.16896203769999998
525,0.00023367589000000002,6.54048e-05,0.0,0.00018253912000000002,0.25311867450000003,0.00017474221,-4.276024e-05,8.841158999999999e-05,0.1747198397
527,0.00024755074,0.00014215343,7.22221e-05,0.0,0.24131540969999998,0.00017008193,-0.00010294541000000001,2.5867329999999998e-05,0.180103656
529,0.00025298701,4.3922659999999996e-05,-0.00010878674,-0.00033097768,0.22756177610000003,0.00015510889,-9.476174000000001e-05,-5.1951280000000004e-05,0.18491418750000002
530,0.0002432353,7.726097e-05,2.429948e-05,-1.848246e-05,0.21296367759999998,0.00015240508999999998,-0.00012988684000000001,5.594909e-05,0.1895869748
532,0.00029364034,0.0002664902,6.111458e-05,0.00013015644,0.19763343049999998,0.00026963702,6.097893e-05,-1.125721e-05,0.1935401495
534,0.00036506013,0.0005030573900000001,0.00013536381000000001,-1.871986e-05,0.18241673819999998,0.00033711394,6.139243e-05,0.00017000322,0.1971792962
536,0.00084835727,0.00092349173,0.0006074633799999999,0.0006412032,0.16794950020000002,0.0008722823200000001,0.00062732018,0.00059752823,0.2006937595
538,0.00193538222,0.00212278988,0.0017869249100000001,0.0013496506199999999,0.1549589445,0.00194403884,0.00185242438,0.00147694985,0.2041541804
540,0.00277954433,0.00281601074,0.0027470119999999996,0.0020510704799999997,0.1421417849,0.00273253119,0.00273911831,0.00239071218,0.20701439700000002
542,0.00372921004,0.00404155103,0.00350827774,0.00293914639,0.1301242608,0.0037754205400000003,0.00380488088,0.00326231519,0.2094695283
543,0.00383047428,0.00378665331,0.00359116267,0.00279001044,0.117676161,0.0037631773699999998,0.0038117112199999997,0.0032247474199999997,0.21059938590000002
545,0.0035005510099999997,0.0033040920299999997,0.0032746975900000003,0.00238247742,0.1055131911,0.00336853538,0.0034685296599999997,0.00280139631,0.2110307228
547,0.00228968448,0.0021837121500000002,0.00186817893,0.0014308946899999999,0.09321870201999999,0.00217559296,0.00190872421,0.0017366211400000001,0.2106036495
549,0.00113042936,0.00113808406,0.00084398664,0.00054164172,0.08194254495999999,0.00119596776,0.0008270755100000001,0.00082183833,0.2097709152
551,0.00074139338,0.00056839906,0.00035943811,-4.0502619999999995e-05,0.07215972874,0.00067564139,0.00032258648,0.00046999469,0.2093003615
553,0.00039870179,0.00026860338,5.375930999999999e-05,-2.0444970000000003e-05,0.06364513858,0.00039143374000000003,0.00022030704000000002,0.00015266172,0.2085626619
555,0.00037537841000000004,0.00024653802,4.070802e-05,-0.00010320994,0.05616590733,0.00029151323,0.0,6.665205e-05,0.2079180028
556,0.00016956677,0.00016180927000000001,6.8507e-05,-0.00037517177999999996,0.049266970910000006,0.000195575,-5.858994e-05,5.8888120000000004e-05,0.2074181357
558,0.00027952226,-1.256961e-05,-4.150952e-05,-0.00054725859,0.04340650736,0.00018752863000000001,-3.944513e-05,-9.3451e-05,0.2066547756
560,0.00019330492,6.347863e-05,-6.98767e-05,-0.0005527496500000001,0.038276868049999996,0.00010276512999999999,-0.00012948296,-4.7194330000000005e-05,0.2056740717
562,0.00017730076,0.00010260764,-8.471218000000001e-05,-0.00053694196,0.03370713785,0.00017303213000000002,-0.00026162234,-3.0340829999999998e-05,0.2047213914
564,0.00021552259,1.296113e-05,9.987248e-05,-0.00067282516,0.029421152830000002,0.00022628392,-6.1010689999999994e-05,-8.322162e-05,0.2040412063
566,0.00022574238999999998,-2.6204319999999997e-05,-0.00024518657,-0.00039492352,0.02595733309,0.00028697236,9.25118e-05,-6.641616000000001e-05,0.2029912903
567,0.00017519878999999999,-0.00017224981,-0.0002041965,-0.00053250567,0.022887118110000004,0.0003596082,-0.00013513582,-8.9554e-05,0.2019626577
569,0.00022559845,-9.383894e-05,-0.00010329705999999999,-0.00056120645,0.02014871784,0.00036170295,-6.310271e-05,-0.00014043856,0.2010486585
571,0.0002229256,-0.00013569827,-0.00017925051000000002,-0.0005453598300000001,0.01771467068,0.0006288908,-6.387594e-05,-0.00010088732,0.1998686597
573,0.00028084979,5.497461e-05,-0.00027231998,-0.00036823047999999997,0.01559400418,0.00092270018,7.547652999999999e-05,9.28906e-05,0.1988996896
575,0.00041575855000000004,0.00015320602,0.0001686478,-0.00027987364,0.01412139398,0.0012003311,0.00032780543000000004,0.00016944363,0.1977374884
577,0.00064510969,0.00036719798,0.00032647587,-4.729928e-05,0.01262383599,0.00169235697,0.00052075871,0.00033409086,0.19686914560000002
579,0.0007205801300000001,0.00048720944000000003,0.00020506191,-0.00016797026999999998,0.01088189157,0.00196957608,0.0005621064,0.00017917529,0.1959285913
580,0.00063830204,0.00062557414,0.00038434959999999996,-0.00017053204,0.0099999551,0.00256994357,0.00094732757,0.00052605812,0.1946303797
582,0.00074908409,0.0007093809199999999,0.00032536672000000005,-4.949552e-05,0.00899252976,0.00298127412,0.00105509463,0.00047446205999999996,0.1935333269
584,0.0007463257099999999,0.00052574237,0.00028109862,-0.00015092243,0.00815082213,0.00360951543,0.0009663413,0.00050255055,0.1927561558
586,0.00084769627,0.00030550528,0.00011770410999999999,-0.00028137079,0.007115058749999999,0.0042742421499999995,0.00113847652,0.00045426680999999995,0.1911990955
588,0.00062890364,0.00026418605000000004,0.00035924035,-7.806922e-05,0.00621511979,0.00503410243,0.00128015337,0.00038337468,0.1898685269
590,0.00063054315,0.00037957813999999997,3.481968e-05,-0.00039726364,0.005706839889999999,0.00582114997,0.00140210373,0.00037947915,0.18850222169999997
591,0.0007386595699999999,0.00028980746,0.00010633915000000001,-0.00024264826,0.00490388215,0.007047732490000001,0.0015536526200000001,0.00024484385000000003,0.1867305724
593,0.0005583191600000001,0.00032786255,0.00018045407,-0.00032941296,0.00431830231,0.00828424572,0.00173623034,-1.661968e-05,0.1851773166
595,0.00047153171,-1.669245e-05,7.349958e-05,-0.0006988076,0.0037788002900000003,0.0097840216,0.00225247616,7.897464e-05,0.1834748639
597,0.00053801562,0.00020396106,0.00020580862,-0.00045539010999999996,0.00332300401,0.01169427229,0.0026535717599999995,0.00021252369,0.1819343856
599,0.00032934336000000003,1.730428e-05,-0.00022858073999999998,-0.00040567586,0.00281333771,0.013839359,0.0031088570999999996,4.093466e-05,0.1796756044
601,0.00028229182,-1.761313e-05,-0.00046532097,-0.0007078567299999999,0.00231983845,0.01632833173,0.0037170683700000003,3.571309e-05,0.17745504239999998
602,0.00020824261,-3.584262e-05,1.972762e-05,-0.00087029286,0.00224978439,0.01937592941,0.00471005927,-3.633797e-05,0.1748761601
604,0.0003249921,-9.113412e-05,-0.00014044747,-0.00094617249,0.0019130329099999999,0.02295204048,0.00546243307,-1.231915e-05,0.17238860290000002
606,0.00119521627,0.0008152137900000001,0.00057105999,6.205067e-05,0.0029868038200000003,0.027885772599999997,0.0078927877,0.0007889128,0.17064244110000001
608,0.0031410491499999998,0.00312439571,0.0025691206100000004,0.0018595487299999998,0.00520334938,0.03396239453,0.01144383005,0.00253151576,0.16721190660000002
610,0.00403466038,0.0035539190500000002,0.00328113461,0.00223970198,0.00608180602,0.03899598319,0.013820929769999999,0.00326081067,0.16237931989999999
611,0.0036578332,0.0033337241099999997,0.0030083280000000002,0.00217457114,0.00529181043,0.043507170740000004,0.015616489200000002,0.00294094681,0.155845085
613,0.00183799222,0.00178770722,0.00110288452,-3.289672e-05,0.0028974333800000003,0.047352737070000005,0.0161520644,0.0013742475400000001,0.1500654636
615,0.00100042273,0.00041778933,6.569982e-05,-0.00026651744,0.00155583269,0.05270969815,0.01816781827,0.0006655993,0.1445150832
617,0.00054443148,0.00020129717,6.647583000000001e-05,-0.0010786616999999999,0.0007456781699999999,0.05953995029,0.021240841160000003,0.00017686856,0.1394931319
619,0.00054221812,4.069871e-05,-0.00017920307,-0.00122673487,0.0006560976100000001,0.0679862042,0.025846944120000003,0.00032321244999999996,0.1357713089
621,0.00058470169,0.00036995315,-0.00015837153,-0.0009980902799999998,0.00053576929,0.07752944555,0.030991268750000002,0.00035422891999999995,0.1313889856
622,0.00046953292,0.00026962439,0.00013698466,-0.0012850355699999998,0.0004268321,0.08858901701,0.037017660710000004,0.00030138657,0.1280832257
624,0.00063261222,-0.00010455838,-0.00016113569,-0.00143572184,0.00044470348,0.1001573894,0.04429598448,0.00040281285,0.1236772311
626,0.00074283956,-4.213476e-05,-0.00013914471,-0.0011641853200000001,0.00053472722,0.11195411379999999,0.05336916039,0.00041293165999999997,0.1205929079
628,0.00065858451,0.00010604203,-0.00035019033,-0.0013140362999999999,0.00020368359999999998,0.1222329384,0.06359316879,0.00044436448,0.1176738749
630,0.0004958382499999999,-6.400759e-05,-0.00028183593,-0.0012504775700000002,-0.00016099891000000003,0.1292627112,0.07591005355,0.00049750673,0.1140749101
631,0.00022777220000000001,-0.00045047671999999994,-0.0006139475500000001,-0.0015086898100000001,-8.82926e-05,0.1310922447,0.09003649793999999,0.00025372352,0.1100339195
633,0.00017706514999999998,-0.00043112920999999996,-0.00083052051,-0.0015521851300000001,-0.00068022922,0.1268117663,0.105901539,0.00021854372,0.1058926074
635,0.00013014316,-0.0006279517799999999,-0.0006435716800000001,-0.0017404724,-0.00054960417,0.1159555302,0.1234002058,0.00022684521,0.1018234792
637,1.306926e-05,-0.00069583774,-0.00112502125,-0.00207553694,-0.00080551153,0.09996193024,0.14258443610000002,-6.613634e-05,0.09743361179000001
639,-4.3740899999999995e-06,-0.00063316019,-0.0008892465500000001,-0.00157210543,-0.0006440269699999999,0.08157182028,0.16435099409999998,5.1647969999999995e-05,0.09336318887999999
641,-0.00014492413000000002,-0.00065762182,-0.00118237682,-0.0020189021,-0.0006466114900000001,0.06376236743,0.1887775645,0.00022964462,0.08984692920000001
642,-0.00011465117000000001,-0.0008804269900000001,-0.001114541,-0.0018428965999999999,-0.00086065324,0.048135905689999994,0.21621415559999999,0.00040166754,0.08589223012
644,7.971631e-05,-0.00066316889,-0.00075434401,-0.00192488079,-0.0007127229499999999,0.03594804948,0.2488492153,0.0003212262,0.08213984587
646,0.00015572555,-0.00055521353,-0.00092898456,-0.00189665272,-0.00065510134,0.026859201540000002,0.2873808187,0.0005478763,0.07924056442
648,0.00012521595,-0.0005357239600000001,-0.00054057676,-0.00179419099,-0.00087281998,0.020208190799999998,0.3322070989,0.00060347521,0.07568265917
650,0.00016190327,-0.00035917104,-0.00116140595,-0.0017291663,-0.00097015666,0.01510654928,0.38262456710000003,0.00068275274,0.07234901172
651,0.0003122709,-0.00045179418,-0.0009200622699999999,-0.00162658476,-0.00102276196,0.011469459900000001,0.43866469700000005,0.00060308336,0.06965029822
653,-9.114989e-05,-0.00061421177,-0.00077628452,-0.0018284926300000002,-0.0009051120799999999,0.008484774859999999,0.49712921280000005,0.0006688261400000001,0.06677867357
655,2.755858e-05,-0.00068778862,-0.00118614136,-0.0018427761200000001,-0.00110090987,0.00641147164,0.5550618819,0.00072053702,0.06395389815
657,1.389831e-05,-0.0006012321899999999,-0.00073819608,-0.00205230712,-0.00090419839,0.00499144023,0.6072971083,0.00112530691,0.061089304450000007
659,0.00011691725,-0.00039684024999999995,-0.00128481813,-0.00179813473,-0.0008967570800000001,0.0037234964399999997,0.6452685412,0.00115964149,0.059123478130000004
660,8.504760999999999e-05,-0.00061318452,-0.00106440413,-0.00193513612,-0.0009221736,0.00302445609,0.6535255558,0.00124331751,0.05671510561
662,-0.00011943502,-0.0007630796500000001,-0.00097123983,-0.00227610535,-0.00116144391,0.00239575111,0.6227393429,0.0016197782799999999,0.05438064822
664,6.284321e-05,-0.00094103938,-0.00116869377,-0.00230311515,-0.00109246396,0.00181143361,0.5511145808,0.0018999349400000002,0.051721364019999994
666,-0.00020068984000000002,-0.00087957373,-0.00118338835,-0.00233207338,-0.0012905667500000002,0.0013805045399999999,0.4540373305,0.00192382378,0.04935574328
668,9.918660000000001e-06,-0.00086640166,-0.0005994856300000001,-0.00207261599,-0.00096793476,0.00104508343,0.3514937165,0.0023925272100000002,0.04752991332
669,-5.027154e-05,-0.00045167176000000006,-0.00091152637,-0.00243711508,-0.00105002652,0.00080050599,0.26141322710000003,0.00305275924,0.045399020500000005
671,3.568537e-05,-0.0006870433400000001,-0.00109242049,-0.00204531033,-0.0011695402300000001,0.00062599398,0.19060949489999998,0.0032161151399999997,0.04351599469
673,-6.722442000000001e-05,-0.0013163825200000001,-0.00107969326,-0.00211790082,-0.00097385571,0.00036869949,0.13889432,0.0035675893400000003,0.04128027934
675,-1.573804e-05,-0.00052370594,-0.00147005147,-0.00241166955,-0.00140110958,0.00044469206,0.1009290112,0.00422100144,0.03958966236
677,-0.0002554708,-0.00071728543,-0.00073109382,-0.00240225778,-0.00134859007,0.00016865775999999998,0.07469783170000001,0.005009588579999999,0.03753242623
678,-7.018983e-05,-0.00070070048,-0.00148331686,-0.0019405513099999998,-0.00140505283,8.554746999999999e-05,0.05569120175,0.00581968588,0.03557369936
680,6.571326e-05,-0.00120268712,-0.00168497271,-0.0020597290900000002,-0.0016125694600000002,0.00023426738999999999,0.0413017085,0.00666924695,0.03401151676
682,1.110464e-05,-0.00063742738,-0.0010067500999999999,-0.00245966722,-0.00134983667,2.639199e-05,0.03054857478,0.00802644655,0.03243727533
684,-0.00017444793,-0.00106737234,-0.0013295530399999999,-0.00192847411,-0.0016571079299999999,-8.91621e-06,0.02300618456,0.0093309419,0.03064847225
686,8.550966e-05,-0.00096745564,-0.00122157916,-0.00195359083,-0.00121021862,-3.6129360000000004e-05,0.01703289363,0.0108756286,0.02856075436
687,-0.00022509247,-0.0007778365299999999,-0.00136363421,-0.00250856593,-0.00156124714,2.74343e-05,0.01310884157,0.01283156411,0.026787772720000002
689,-1.751993e-05,-0.00075790127,-0.00173275799,-0.0021477789,-0.0013797753300000002,5.089206e-05,0.00992523434,0.01458928355,0.024767565459999998
691,-7.676905e-05,-0.00094323737,-0.0014276724,-0.00266539998,-0.00179962089,-0.00011695778,0.00721501717,0.017113301469999998,0.02392919851
693,-0.0001551523,-0.0009233679,-0.00111479974,-0.0024939095,-0.00181854094,-0.00014655238,0.00579530786,0.01999088136,0.02235581047
694,-6.026297e-05,-0.00126336256,-0.001655593,-0.0027703778699999996,-0.0013412572,-8.593485e-05,0.00403539987,0.02322761059,0.02095031446
696,-0.00018853524,-0.0007285683599999999,-0.0014369193199999998,-0.0022367082999999997,-0.00135360646,-0.00032281369999999994,0.00311991034,0.02674482226,0.01925591074
698,-0.00011041247,-0.00119409377,-0.00182000444,-0.00220465119,-0.00176430273,-0.00024297518,0.00189763494,0.03075121282,0.01823507792
700,-0.00017312996000000002,-0.00148143856,-0.00139293589,-0.00263578626,-0.00154555784,-0.00031350211,0.00186442486,0.03547224358,0.01693526664
702,1.245952e-05,-0.00046643469999999997,-0.00112958365,-0.00275977117,-0.00159985586,-3.9482780000000006e-05,0.0008050545100000001,0.041077583339999994,0.015577821629999999
703,-0.00020076044,-0.0008455127199999999,-0.0014822781300000002,-0.00235975276,-0.0015896741,-7.952331e-05,0.00039308649,0.04713529323000001,0.014728523890000001
705,0.00010106043,-0.0011980445300000002,-0.00152702766,-0.00237574314,-0.00097324431,0.00016012437,0.00056889085,0.054337438,0.01372046507
707,0.00036234628999999997,-0.00066634091,-0.00083828807,-0.00233790827,-0.0010883465,0.00025180554000000003,0.00047297973999999997,0.06279395968,0.01280818335
709,0.00033903111,-0.00073437812,-0.00098413525,-0.00310111232,-0.00140181875,7.601534e-05,0.00015029859,0.07246732019,0.01165143073
711,3.218002e-05,-0.00096375319,-0.00130843201,-0.00220559636,-0.0013883696700000001,-5.09874e-06,-0.00010081295000000001,0.08357225078000001,0.011375472959999999
712,-0.00011008014,-0.00129285037,-0.0015298948800000001,-0.00313916305,-0.00126381389,-6.155844e-05,-0.0006846424,0.09638143569,0.01048390586
714,-0.00020195973999999998,-0.00081296403,-0.00168241853,-0.00245042515,-0.00149460393,-4.6450659999999996e-05,-0.00053575023,0.1112778851,0.00949311343
716,-0.00026873664,-0.0010142218,-0.00194477727,-0.00235579399,-0.00143638618,-0.00010904571999999999,-0.00118070344,0.1278443063,0.00884351344
718,-0.00017148001999999998,-0.00108638142,-0.00141331139,-0.00297686922,-0.0017615013800000002,-0.00025080011,-0.00100726733,0.1470529549,0.00797908347
719,-9.290949e-05,-0.0014243893,-0.00156795489,-0.0031617877300000002,-0.0019087960500000002,-0.00029967685,-0.0012734094800000001,0.1690126792,0.00707360707
721,-0.00055425264,-0.00126660584,-0.00161441592,-0.0026791481900000002,-0.00185209349,-0.00013754643000000002,-0.00135979358,0.1939119337,0.0072077791599999995
723,-0.00024858681,-0.0008383870699999999,-0.00136587562,-0.0028639956100000004,-0.00184040985,-0.00016500015,-0.0014470349,0.220664485,0.006556870980000001
725,-0.00024333754,-0.00114713293,-0.0016341517,-0.00327687919,-0.0018053001900000002,-0.00017671233000000002,-0.00140288623,0.2487194547,0.00620150839
726,5.437929e-05,-0.00132323306,-0.0014566030199999998,-0.00232944897,-0.00162925766,-0.00035541337,-0.0018100576199999998,0.2779583993,0.005227573960000001
728,-0.00034166881,-0.00129612575,-0.00150185635,-0.0031985207700000002,-0.00145069204,-0.00047097829,-0.00157880068,0.3101015035,0.00510157139
730,-0.00018536718000000002,-0.00116513488,-0.00248969464,-0.002983996,-0.00225677632,-0.00022843606,-0.00137113184,0.34160913559999995,0.00401395942
732,-0.00035834011,-0.00123829122,-0.0017796025200000002,-0.0032255659500000002,-0.00176970774,-0.00026750658,-0.0018889918499999999,0.3706349172,0.00344013598
734,-0.00024188224,-0.00151780797,-0.0017467342999999999,-0.0035236405100000003,-0.00146715446,-0.00019709915,-0.0013531499,0.3950128842,0.0038851384900000004
735,-6.922062e-05,-0.00127839613,-0.0019016850399999998,-0.00202502027,-0.0016828370600000002,-0.00019741689,-0.00170771748,0.4115644192,0.00261502201
737,-0.00013154849,-0.0011058862899999999,-0.0015216870699999998,-0.0036458487899999996,-0.00192028421,-0.00037298168,-0.0015454220499999999,0.411060516,0.00239763771
739,-0.00014518753000000001,-0.00110430294,-0.0016334715299999999,-0.00294717574,-0.00194120812,-0.0001533608,-0.00154320939,0.3893635261,0.00230092418
741,-0.00025502262,-0.0011009185,-0.00143910887,-0.00259247938,-0.00169925158,-0.00027301926,-0.00164644329,0.34964036319999997,0.0016739068600000002
742,-0.00029491908,-0.00130090693,-0.00180887573,-0.00292368388,-0.00185528109,-0.00015213837,-0.00150405047,0.298276373,0.00206666351
744,-0.00022481096999999998,-0.00146217792,-0.00164698372,-0.00324566901,-0.00202941569,-0.0003723908,-0.00176070847,0.2434904014,0.00122553042
746,-0.00018234573,-0.00134840404,-0.00207803541,-0.0027660099700000003,-0.0021043667999999997,-0.00028356591,-0.0014810162800000001,0.1924221374,0.00078970655
748,-0.00014704421,-0.00146793269,-0.0011751906,-0.0028491889399999996,-0.00164780554,-0.00048185120999999997,-0.00196302794,0.1487543125,0.00024047824
749,-0.00022455274,-0.00197796642,-0.00177815087,-0.00325699643,-0.00187700639,-0.0003662552,-0.00173282306,0.1130990329,0.00023762383
751,-0.0005801601299999999,-0.0011388175,-0.00168340576,-0.0026153205800000003,-0.00162940462,-0.00019624011,-0.00178688202,0.08526121207,2.931693e-05
753,-0.00016714954000000002,-0.0014761071200000001,-0.0009184134900000001,-0.00257928236,-0.00171701719,-0.00011204715,-0.00113288104,0.06458837408,-0.00023130359
755,-9.510398e-05,-0.00104435843,-0.0019857078599999998,-0.0027557295100000003,-0.0016282342899999998,-0.00034155656999999997,-0.00188695256,0.04859746078,-0.00034217574
756,-0.00021894705,-0.0012802156000000001,-0.00109990227,-0.00318953007,-0.00182069911,-0.00023788036,-0.0014943104900000002,0.03647860793,-0.00019693805
758,-0.0003090824,-0.00083309829,-0.0015284451499999999,-0.0031001402300000003,-0.00162983336,-0.00023996431,-0.0016945027300000002,0.02715270368,-0.00022241025
760,-0.00011022049,-0.00097806571,-0.0016486140499999999,-0.00250790882,-0.00157253136,-0.00012127636000000001,-0.0018943355,0.0203584307,-0.00011015656999999999
762,-0.00026777538,-0.00069867309,-0.00130411429,-0.0030520738699999998,-0.00197965624,-0.00032784849,-0.0016682301799999999,0.01502888905,-0.0006295154
763,-0.00027329920000000003,-0.0015157377599999999,-0.0017686210799999998,-0.00253817567,-0.0021835510999999998,-0.00015396504999999998,-0.00197398528,0.01125878113,-0.0010652487
765,-0.00020711396,-0.0015811097099999998,-0.00174047131,-0.00224031427,-0.00166866303,-0.00039089648999999995,-0.00164596086,0.00880600854,-0.00117803842
767,-0.00026412049,-0.001011756,-0.00114748133,-0.00256702123,-0.0015353405,-0.0005352696600000001,-0.00163562038,0.00656887089,-0.00143647321
769,-0.00029268291,-0.00142983376,-0.00150551559,-0.00223817365,-0.0017698065800000001,-0.00040453831000000003,-0.00158508598,0.00515761389,-0.00095222367
770,-0.00019035294,-0.00126685392,-0.00170831318,-0.00259872447,-0.0016077490599999999,-0.00039208411,-0.0013665986599999999,0.0036497284000000002,-0.0018548647400000002
772,-0.00018177617,-0.00132859002,-0.0012841462700000001,-0.0025503665,-0.00157828517,-0.00040630514,-0.00142366205,0.00281436144,-0.00189781042
774,-5.3298490000000004e-05,-0.00136344307,-0.0017937177,-0.00289570357,-0.00209875128,-0.00047502203,-0.00164363527,0.00227009556,-0.00209741094
776,-0.00028059354,-0.00081984786,-0.00101529127,-0.00245973369,-0.00152319456,-0.00031988371,-0.0016079962400000001,0.00181243023,-0.00224686628
777,-0.00057648324,-0.00129838285,-0.00142924814,-0.00311440096,-0.00154063946,-6.126491e-05,-0.0010736862899999998,0.0009842802200000001,-0.00211840108
779,-0.00032415659,-0.00201353222,-0.0018602584199999999,-0.00307070673,-0.0017512530400000002,-0.00038235207,-0.00132580657,0.0007776607,-0.00275373295
781,-0.00037527436999999997,-0.0014691526999999998,-0.00210239906,-0.0028906959399999997,-0.00123459076,-0.0005129886,-0.0014983802600000002,0.00068266754,-0.00264745919
782,-0.00081497529,-0.0011569320499999999,-0.00176652373,-0.0035622026299999996,-0.00153609263,-0.0002487789,-0.0019617005400000003,0.00012612053,-0.0030936154199999997
784,-0.00028755333,-0.00181302692,-0.00187102846,-0.0034155007300000003,-0.0021246963099999998,-0.0005695143999999999,-0.0015705459099999998,0.00024252484000000002,-0.00275664203
786,-0.00027500597,-0.00141081335,-0.0013851175800000002,-0.00383104008,-0.00190946057,-0.00044783459999999997,-0.00197434719,-2.5771370000000003e-05,-0.00292024375
788,-0.0006643109399999999,-0.00080969315,-0.0014855048600000002,-0.0036156534899999997,-0.0017721315900000002,-0.00045896601,-0.0014217092200000002,-0.00059937499,-0.0028139639300000002
789,-0.00026077143,-0.0015382923700000002,-0.0015630815700000001,-0.00244384473,-0.0020022854600000002,-0.00035683482,-0.0019185703100000001,-0.00019994252,-0.0036249898
791,-0.00037286135999999996,-0.0011166751199999999,-0.0017300216500000002,-0.00401687834,-0.00198600855,-0.00027569599999999997,-0.00171969211,-0.00012578974,-0.0041363606200000005
